{
    "totalHits": 68347,
    "currentPage": 1,
    "totalPages": 68347,
    "pageList": [
        1,
        2,
        3,
        4,
        5,
        6,
        7,
        8,
        9,
        10
    ],
    "foodSearchCriteria": {
        "query": "Shells & White Cheddar",
        "generalSearchInput": "Shells & White Cheddar",
        "pageNumber": 1,
        "numberOfResultsPerPage": 50,
        "pageSize": 1,
        "requireAllWords": false
    },
    "foods": [
        {
            "fdcId": 2427956,
            "description": "SHELLS & WHITE CHEDDAR",
            "dataType": "Branded",
            "gtinUpc": "817974020121",
            "publishedDate": "2022-12-22",
            "brandOwner": "Brandless, Inc",
            "brandName": "BRANDLESS",
            "ingredients": "ORGANIC SHELLS: ORGANIC DURUM WHEAT SEMOLINA, ORGANIC WHITE CHEDDAR CHEESE SEASONING: ORGANIC MALTODEXTRIN, ORGANIC CHEDDAR CHEESE* (PASTEURIZED ORGANIC MILK, CHEESE CULTURES, SALT, ENZYMES), SALT, ORGANIC CREAM POWDER (ORGANIC CREAM, ORGANIC NON-FAT DRY MILK, SILICON DIOXIDE, VITAMIN E), ORGANIC WHEAT FLOUR, ORGANIC CORN STARCH, ORGANIC NON-FAT DRY MILK, CONTAINS 2% OR LESS OF: NATURAL FLAVORS, SODIUM PHOSPHATE, SILICON DIOXIDE, LACTIC ACID POWDER (FOR FLAVOR), ORGANIC SUNFLOWER OIL, CITRIC ACID (FOR FLAVOR).",
            "marketCountry": "United States",
            "foodCategory": "Pasta Dinners",
            "modifiedDate": "2019-01-02",
            "dataSource": "LI",
            "packageWeight": "6 oz/170 g",
            "servingSizeUnit": "g",
            "servingSize": 71.0,
            "householdServingFullText": "2.5 ONZ",
            "shortDescription": "",
            "tradeChannels": [
                "NO_TRADE_CHANNEL"
            ],
            "allHighlightFields": "<b>Ingredients</b>: ORGANIC <em>SHELLS</em>: ORGANIC DURUM WHEAT SEMOLINA, ORGANIC <em>WHITE</em> <em>CHEDDAR</em> CHEESE SEASONING: ORGANIC",
            "score": 1678.9958,
            "microbes": [],
            "foodNutrients": [
                {
                    "nutrientId": 1003,
                    "nutrientName": "Protein",
                    "nutrientNumber": "203",
                    "unitName": "G",
                    "derivationCode": "LCCS",
                    "derivationDescription": "Calculated from value per serving size measure",
                    "derivationId": 70,
                    "value": 11.3,
                    "foodNutrientSourceId": 9,
                    "foodNutrientSourceCode": "12",
                    "foodNutrientSourceDescription": "Manufacturer's analytical; partial documentation",
                    "rank": 600,
                    "indentLevel": 1,
                    "foodNutrientId": 29952705
                },
                {
                    "nutrientId": 1004,
                    "nutrientName": "Total lipid (fat)",
                    "nutrientNumber": "204",
                    "unitName": "G",
                    "derivationCode": "LCCS",
                    "derivationDescription": "Calculated from value per serving size measure",
                    "derivationId": 70,
                    "value": 3.52,
                    "foodNutrientSourceId": 9,
                    "foodNutrientSourceCode": "12",
                    "foodNutrientSourceDescription": "Manufacturer's analytical; partial documentation",
                    "rank": 800,
                    "indentLevel": 1,
                    "foodNutrientId": 29952706,
                    "percentDailyValue": 3
                },
                {
                    "nutrientId": 1005,
                    "nutrientName": "Carbohydrate, by difference",
                    "nutrientNumber": "205",
                    "unitName": "G",
                    "derivationCode": "LCCS",
                    "derivationDescription": "Calculated from value per serving size measure",
                    "derivationId": 70,
                    "value": 71.8,
                    "foodNutrientSourceId": 9,
                    "foodNutrientSourceCode": "12",
                    "foodNutrientSourceDescription": "Manufacturer's analytical; partial documentation",
                    "rank": 1110,
                    "indentLevel": 2,
                    "foodNutrientId": 29952707,
                    "percentDailyValue": 19
                },
                {
                    "nutrientId": 1008,
                    "nutrientName": "Energy",
                    "nutrientNumber": "208",
                    "unitName": "KCAL",
                    "derivationCode": "LCCS",
                    "derivationDescription": "Calculated from value per serving size measure",
                    "derivationId": 70,
                    "value": 366,
                    "foodNutrientSourceId": 9,
                    "foodNutrientSourceCode": "12",
                    "foodNutrientSourceDescription": "Manufacturer's analytical; partial documentation",
                    "rank": 300,
                    "indentLevel": 1,
                    "foodNutrientId": 29952708
                },
                {
                    "nutrientId": 2000,
                    "nutrientName": "Total Sugars",
                    "nutrientNumber": "269",
                    "unitName": "G",
                    "derivationCode": "LCCS",
                    "derivationDescription": "Calculated from value per serving size measure",
                    "derivationId": 70,
                    "value": 5.63,
                    "foodNutrientSourceId": 9,
                    "foodNutrientSourceCode": "12",
                    "foodNutrientSourceDescription": "Manufacturer's analytical; partial documentation",
                    "rank": 1510,
                    "indentLevel": 3,
                    "foodNutrientId": 29952709
                },
                {
                    "nutrientId": 1079,
                    "nutrientName": "Fiber, total dietary",
                    "nutrientNumber": "291",
                    "unitName": "G",
                    "derivationCode": "LCCD",
                    "derivationDescription": "Calculated from a daily value percentage per serving size measure",
                    "derivationId": 75,
                    "value": 0.0,
                    "foodNutrientSourceId": 9,
                    "foodNutrientSourceCode": "12",
                    "foodNutrientSourceDescription": "Manufacturer's analytical; partial documentation",
                    "rank": 1200,
                    "indentLevel": 3,
                    "foodNutrientId": 29952710,
                    "percentDailyValue": 0
                },
                {
                    "nutrientId": 1087,
                    "nutrientName": "Calcium, Ca",
                    "nutrientNumber": "301",
                    "unitName": "MG",
                    "derivationCode": "LCCS",
                    "derivationDescription": "Calculated from value per serving size measure",
                    "derivationId": 70,
                    "value": 42.0,
                    "foodNutrientSourceId": 9,
                    "foodNutrientSourceCode": "12",
                    "foodNutrientSourceDescription": "Manufacturer's analytical; partial documentation",
                    "rank": 5300,
                    "indentLevel": 1,
                    "foodNutrientId": 29952711,
                    "percentDailyValue": 2
                },
                {
                    "nutrientId": 1089,
                    "nutrientName": "Iron, Fe",
                    "nutrientNumber": "303",
                    "unitName": "MG",
                    "derivationCode": "LCCS",
                    "derivationDescription": "Calculated from value per serving size measure",
                    "derivationId": 70,
                    "value": 2.82,
                    "foodNutrientSourceId": 9,
                    "foodNutrientSourceCode": "12",
                    "foodNutrientSourceDescription": "Manufacturer's analytical; partial documentation",
                    "rank": 5400,
                    "indentLevel": 1,
                    "foodNutrientId": 29952712,
                    "percentDailyValue": 10
                },
                {
                    "nutrientId": 1092,
                    "nutrientName": "Potassium, K",
                    "nutrientNumber": "306",
                    "unitName": "MG",
                    "derivationCode": "LCCS",
                    "derivationDescription": "Calculated from value per serving size measure",
                    "derivationId": 70,
                    "value": 28.0,
                    "foodNutrientSourceId": 9,
                    "foodNutrientSourceCode": "12",
                    "foodNutrientSourceDescription": "Manufacturer's analytical; partial documentation",
                    "rank": 5700,
                    "indentLevel": 1,
                    "foodNutrientId": 29952713,
                    "percentDailyValue": 0
                },
                {
                    "nutrientId": 1093,
                    "nutrientName": "Sodium, Na",
                    "nutrientNumber": "307",
                    "unitName": "MG",
                    "derivationCode": "LCCS",
                    "derivationDescription": "Calculated from value per serving size measure",
                    "derivationId": 70,
                    "value": 845,
                    "foodNutrientSourceId": 9,
                    "foodNutrientSourceCode": "12",
                    "foodNutrientSourceDescription": "Manufacturer's analytical; partial documentation",
                    "rank": 5800,
                    "indentLevel": 1,
                    "foodNutrientId": 29952714,
                    "percentDailyValue": 26
                },
                {
                    "nutrientId": 1110,
                    "nutrientName": "Vitamin D (D2 + D3), International Units",
                    "nutrientNumber": "324",
                    "unitName": "IU",
                    "derivationCode": "LCCD",
                    "derivationDescription": "Calculated from a daily value percentage per serving size measure",
                    "derivationId": 75,
                    "value": 0.0,
                    "foodNutrientSourceId": 9,
                    "foodNutrientSourceCode": "12",
                    "foodNutrientSourceDescription": "Manufacturer's analytical; partial documentation",
                    "rank": 8650,
                    "indentLevel": 1,
                    "foodNutrientId": 29952715,
                    "percentDailyValue": 0
                },
                {
                    "nutrientId": 1253,
                    "nutrientName": "Cholesterol",
                    "nutrientNumber": "601",
                    "unitName": "MG",
                    "derivationCode": "LCCS",
                    "derivationDescription": "Calculated from value per serving size measure",
                    "derivationId": 70,
                    "value": 7.0,
                    "foodNutrientSourceId": 9,
                    "foodNutrientSourceCode": "12",
                    "foodNutrientSourceDescription": "Manufacturer's analytical; partial documentation",
                    "rank": 15700,
                    "indentLevel": 1,
                    "foodNutrientId": 29952716,
                    "percentDailyValue": 2
                },
                {
                    "nutrientId": 1257,
                    "nutrientName": "Fatty acids, total trans",
                    "nutrientNumber": "605",
                    "unitName": "G",
                    "derivationCode": "LCCS",
                    "derivationDescription": "Calculated from value per serving size measure",
                    "derivationId": 70,
                    "value": 0.0,
                    "foodNutrientSourceId": 9,
                    "foodNutrientSourceCode": "12",
                    "foodNutrientSourceDescription": "Manufacturer's analytical; partial documentation",
                    "rank": 15400,
                    "indentLevel": 1,
                    "foodNutrientId": 29952717
                },
                {
                    "nutrientId": 1258,
                    "nutrientName": "Fatty acids, total saturated",
                    "nutrientNumber": "606",
                    "unitName": "G",
                    "derivationCode": "LCCS",
                    "derivationDescription": "Calculated from value per serving size measure",
                    "derivationId": 70,
                    "value": 1.41,
                    "foodNutrientSourceId": 9,
                    "foodNutrientSourceCode": "12",
                    "foodNutrientSourceDescription": "Manufacturer's analytical; partial documentation",
                    "rank": 9700,
                    "indentLevel": 1,
                    "foodNutrientId": 29952718,
                    "percentDailyValue": 5
                }
            ],
            "finalFoodInputFoods": [],
            "foodMeasures": [],
            "foodAttributes": [],
            "foodAttributeTypes": [],
            "foodVersionIds": []
        }
    ],
    "aggregations": {
        "dataType": {
            "Branded": 67522,
            "Survey (FNDDS)": 553,
            "SR Legacy": 256,
            "Foundation": 14,
            "Experimental": 2
        },
        "nutrients": {}
    }
}